<?xml version="1.0" encoding="UTF-8" standalone="no"?>
<!-- Created with Inkscape (http://www.inkscape.org/) -->

<svg
   xmlns:dc="http://purl.org/dc/elements/1.1/"
   xmlns:cc="http://creativecommons.org/ns#"
   xmlns:rdf="http://www.w3.org/1999/02/22-rdf-syntax-ns#"
   xmlns:svg="http://www.w3.org/2000/svg"
   xmlns="http://www.w3.org/2000/svg"
   xmlns:xlink="http://www.w3.org/1999/xlink"
   xmlns:sodipodi="http://sodipodi.sourceforge.net/DTD/sodipodi-0.dtd"
   xmlns:inkscape="http://www.inkscape.org/namespaces/inkscape"
   width="297mm"
   height="210mm"
   viewBox="0 0 297 210"
   version="1.1"
   id="svg8"
   inkscape:version="0.92.3 (2405546, 2018-03-11)"
   sodipodi:docname="Regionskarten_Dschungel.svg">
  <defs
     id="defs2" />
  <sodipodi:namedview
     id="base"
     pagecolor="#ffffff"
     bordercolor="#666666"
     borderopacity="1.0"
     inkscape:pageopacity="0.0"
     inkscape:pageshadow="2"
     inkscape:zoom="0.70710678"
     inkscape:cx="369.11001"
     inkscape:cy="-83.315659"
     inkscape:document-units="mm"
     inkscape:current-layer="layer1"
     showgrid="false"
     inkscape:snap-grids="false"
     inkscape:window-width="1366"
     inkscape:window-height="713"
     inkscape:window-x="0"
     inkscape:window-y="27"
     inkscape:window-maximized="1"
     showguides="true"
     inkscape:guide-bbox="true">
    <sodipodi:guide
       position="83.788997,143.12283"
       orientation="1,0"
       id="guide1174"
       inkscape:locked="false" />
    <sodipodi:guide
       position="182.5625,163.09672"
       orientation="1,0"
       id="guide1353"
       inkscape:locked="false" />
    <sodipodi:guide
       position="279.32441,138.90625"
       orientation="1,0"
       id="guide1355"
       inkscape:locked="false" />
    <sodipodi:guide
       position="199.57143,90.147319"
       orientation="0,1"
       id="guide1357"
       inkscape:locked="false" />
    <sodipodi:guide
       position="209.77679,22.678571"
       orientation="0,1"
       id="guide1359"
       inkscape:locked="false" />
    <sodipodi:guide
       position="182.5625,156.24886"
       orientation="0,1"
       id="guide10098"
       inkscape:locked="false" />
  </sodipodi:namedview>
  <metadata
     id="metadata5">
    <rdf:RDF>
      <cc:Work
         rdf:about="">
        <dc:format>image/svg+xml</dc:format>
        <dc:type
           rdf:resource="http://purl.org/dc/dcmitype/StillImage" />
        <dc:title />
      </cc:Work>
    </rdf:RDF>
  </metadata>
  <g
     inkscape:label="Ebene 1"
     inkscape:groupmode="layer"
     id="layer1"
     transform="translate(0,-87)">
    <image
       sodipodi:absref="/home/thuri/Projects/holz11/images/src/Dschungel.jpg"
       xlink:href="Dschungel.jpg"
       y="97.061295"
       x="105.31104"
       id="image1800-2"
       preserveAspectRatio="none"
       height="51.264572"
       width="85.26458" />
    <image
       sodipodi:absref="/home/thuri/Projects/holz11/images/src/Dschungel.jpg"
       xlink:href="Dschungel.jpg"
       y="97.061295"
       x="202.47314"
       id="image1800-7"
       preserveAspectRatio="none"
       height="51.264572"
       width="85.26458" />
    <image
       sodipodi:absref="/home/thuri/Projects/holz11/images/src/Dschungel.jpg"
       xlink:href="Dschungel.jpg"
       y="164.45992"
       x="202.47314"
       id="image1800-0"
       preserveAspectRatio="none"
       height="51.264572"
       width="85.26458" />
    <image
       sodipodi:absref="/home/thuri/Projects/holz11/images/src/Dschungel.jpg"
       xlink:href="Dschungel.jpg"
       y="164.4599"
       x="105.31104"
       id="image1800-9"
       preserveAspectRatio="none"
       height="51.264572"
       width="85.26458" />
    <image
       sodipodi:absref="/home/thuri/Projects/holz11/images/src/Dschungel.jpg"
       xlink:href="Dschungel.jpg"
       y="164.4599"
       x="6.4289169"
       id="image1800-3"
       preserveAspectRatio="none"
       height="51.264572"
       width="85.26458" />
    <image
       sodipodi:absref="/home/thuri/Projects/holz11/images/src/Dschungel.jpg"
       xlink:href="Dschungel.jpg"
       y="231.85851"
       x="6.4289169"
       id="image1800-6"
       preserveAspectRatio="none"
       height="51.264572"
       width="85.26458" />
    <image
       sodipodi:absref="/home/thuri/Projects/holz11/images/src/Dschungel.jpg"
       xlink:href="Dschungel.jpg"
       y="231.85849"
       x="105.31104"
       id="image1800-06"
       preserveAspectRatio="none"
       height="51.264572"
       width="85.26458" />
    <image
       sodipodi:absref="/home/thuri/Projects/holz11/images/src/Dschungel.jpg"
       xlink:href="Dschungel.jpg"
       y="231.85851"
       x="202.47314"
       id="image1800-26"
       preserveAspectRatio="none"
       height="51.264572"
       width="85.26458" />
    <image
       sodipodi:absref="/home/thuri/Projects/holz11/images/src/Dschungel.jpg"
       xlink:href="Dschungel.jpg"
       width="85.26458"
       height="51.264572"
       preserveAspectRatio="none"
       id="image1800"
       x="6.428915"
       y="97.061295" />
    <flowRoot
       xml:space="preserve"
       id="flowRoot916"
       style="font-style:normal;font-variant:normal;font-weight:normal;font-stretch:normal;font-size:40px;line-height:1.25;font-family:serif;-inkscape-font-specification:serif;letter-spacing:0px;word-spacing:0px;fill:#000000;fill-opacity:1;stroke:none"
       transform="scale(0.26458333)"><flowRegion
         id="flowRegion918"
         style="font-style:normal;font-variant:normal;font-weight:normal;font-stretch:normal;font-family:serif;-inkscape-font-specification:serif"><rect
           id="rect920"
           width="254.53856"
           height="73.157433"
           x="38.385796"
           y="122.46867"
           style="font-style:normal;font-variant:normal;font-weight:normal;font-stretch:normal;font-family:serif;-inkscape-font-specification:serif" /></flowRegion><flowPara
         id="flowPara922" /></flowRoot>    <rect
       style="opacity:1;fill:none;fill-opacity:1;fill-rule:evenodd;stroke:#000001;stroke-width:5;stroke-linejoin:miter;stroke-miterlimit:4;stroke-dasharray:none;stroke-dashoffset:0;stroke-opacity:1"
       id="rect882"
       width="85.26458"
       height="51.26458"
       x="6.428915"
       y="97.061295" />
    <flowRoot
       xml:space="preserve"
       id="flowRoot924"
       style="font-style:normal;font-variant:normal;font-weight:normal;font-stretch:normal;font-size:40px;line-height:1.25;font-family:serif;-inkscape-font-specification:serif;letter-spacing:0px;word-spacing:0px;fill:#ffffff;fill-opacity:1;stroke:#000000;stroke-width:0.9448819;stroke-miterlimit:4;stroke-dasharray:none"
       transform="matrix(0.26458333,0,0,0.26458333,85.187893,225.6147)"><flowRegion
         id="flowRegion926"
         style="font-style:normal;font-variant:normal;font-weight:normal;font-stretch:normal;font-family:serif;-inkscape-font-specification:serif;stroke-width:0.9448819;stroke-miterlimit:4;stroke-dasharray:none;fill:#ffffff;stroke:#000000"><rect
           id="rect928"
           width="339.36261"
           height="70.26284"
           x="103.03556"
           y="148.22755"
           style="font-style:normal;font-variant:normal;font-weight:normal;font-stretch:normal;font-family:serif;-inkscape-font-specification:serif;stroke-width:0.9448819;stroke-miterlimit:4;stroke-dasharray:none;fill:#ffffff;stroke:#000000" /></flowRegion><flowPara
         id="flowPara930"
         style="font-style:normal;font-variant:normal;font-weight:bold;font-stretch:normal;font-size:26.66666794px;font-family:serif;-inkscape-font-specification:'serif Bold';stroke:#000000;stroke-width:0.9448819;stroke-miterlimit:4;stroke-dasharray:none;stroke-opacity:1;fill:#ffffff">DSCHUNGEL VIII</flowPara></flowRoot>    <rect
       style="opacity:1;fill:none;fill-opacity:1;fill-rule:evenodd;stroke:#000001;stroke-width:5;stroke-linejoin:miter;stroke-miterlimit:4;stroke-dasharray:none;stroke-dashoffset:0;stroke-opacity:1"
       id="rect882-5"
       width="85.26458"
       height="51.26458"
       x="6.428915"
       y="164.4599" />
    <rect
       style="opacity:1;fill:none;fill-opacity:1;fill-rule:evenodd;stroke:#000001;stroke-width:5;stroke-linejoin:miter;stroke-miterlimit:4;stroke-dasharray:none;stroke-dashoffset:0;stroke-opacity:1"
       id="rect882-5-6"
       width="85.26458"
       height="51.26458"
       x="6.428915"
       y="231.85849" />
    <rect
       style="opacity:1;fill:none;fill-opacity:1;fill-rule:evenodd;stroke:#000001;stroke-width:5;stroke-linejoin:miter;stroke-miterlimit:4;stroke-dasharray:none;stroke-dashoffset:0;stroke-opacity:1"
       id="rect882-5-6-9-3-7"
       width="85.26458"
       height="51.26458"
       x="105.31104"
       y="97.061295" />
    <rect
       style="opacity:1;fill:none;fill-opacity:1;fill-rule:evenodd;stroke:#000001;stroke-width:5;stroke-linejoin:miter;stroke-miterlimit:4;stroke-dasharray:none;stroke-dashoffset:0;stroke-opacity:1"
       id="rect882-5-6-9-3"
       width="85.26458"
       height="51.26458"
       x="105.31104"
       y="164.4599" />
    <rect
       style="opacity:1;fill:none;fill-opacity:1;fill-rule:evenodd;stroke:#000001;stroke-width:5;stroke-linejoin:miter;stroke-miterlimit:4;stroke-dasharray:none;stroke-dashoffset:0;stroke-opacity:1"
       id="rect882-5-6-9"
       width="85.26458"
       height="51.26458"
       x="105.31104"
       y="231.85849" />
    <rect
       style="opacity:1;fill:none;fill-opacity:1;fill-rule:evenodd;stroke:#000001;stroke-width:5;stroke-linejoin:miter;stroke-miterlimit:4;stroke-dasharray:none;stroke-dashoffset:0;stroke-opacity:1"
       id="rect882-5-6-9-3-7-4"
       width="85.26458"
       height="51.26458"
       x="202.47316"
       y="97.061295" />
    <rect
       style="opacity:1;fill:none;fill-opacity:1;fill-rule:evenodd;stroke:#000001;stroke-width:5;stroke-linejoin:miter;stroke-miterlimit:4;stroke-dasharray:none;stroke-dashoffset:0;stroke-opacity:1"
       id="rect882-5-6-9-3-7-5"
       width="85.26458"
       height="51.26458"
       x="202.47316"
       y="164.4599" />
    <rect
       style="opacity:1;fill:none;fill-opacity:1;fill-rule:evenodd;stroke:#000001;stroke-width:5;stroke-linejoin:miter;stroke-miterlimit:4;stroke-dasharray:none;stroke-dashoffset:0;stroke-opacity:1"
       id="rect882-5-6-9-3-7-2"
       width="85.26458"
       height="51.26458"
       x="202.47316"
       y="231.85849" />
    <flowRoot
       xml:space="preserve"
       id="flowRoot924-4"
       style="font-style:normal;font-variant:normal;font-weight:normal;font-stretch:normal;font-size:40px;line-height:1.25;font-family:serif;-inkscape-font-specification:serif;letter-spacing:0px;word-spacing:0px;fill:#ffffff;fill-opacity:1;stroke:#000000;stroke-width:0.9448819;stroke-miterlimit:4;stroke-dasharray:none"
       transform="matrix(0.26458333,0,0,0.26458333,-10.274894,225.6147)"><flowRegion
         id="flowRegion926-0"
         style="font-style:normal;font-variant:normal;font-weight:normal;font-stretch:normal;font-family:serif;-inkscape-font-specification:serif;stroke-width:0.9448819;stroke-miterlimit:4;stroke-dasharray:none;fill:#ffffff;stroke:#000000"><rect
           id="rect928-0"
           width="339.36261"
           height="70.26284"
           x="103.03556"
           y="148.22755"
           style="font-style:normal;font-variant:normal;font-weight:normal;font-stretch:normal;font-family:serif;-inkscape-font-specification:serif;stroke-width:0.9448819;stroke-miterlimit:4;stroke-dasharray:none;fill:#ffffff;stroke:#000000" /></flowRegion><flowPara
         id="flowPara930-4"
         style="font-style:normal;font-variant:normal;font-weight:bold;font-stretch:normal;font-size:26.66666794px;font-family:serif;-inkscape-font-specification:'serif Bold';stroke:#000000;stroke-width:0.9448819;stroke-miterlimit:4;stroke-dasharray:none;stroke-opacity:1;fill:#ffffff">DSCHUNGEL VII</flowPara></flowRoot>    <flowRoot
       xml:space="preserve"
       id="flowRoot924-6"
       style="font-style:normal;font-variant:normal;font-weight:normal;font-stretch:normal;font-size:40px;line-height:1.25;font-family:serif;-inkscape-font-specification:serif;letter-spacing:0px;word-spacing:0px;fill:#ffffff;fill-opacity:1;stroke:#000000;stroke-width:0.9448819;stroke-miterlimit:4;stroke-dasharray:none"
       transform="matrix(0.26458333,0,0,0.26458333,188.23554,225.6147)"><flowRegion
         id="flowRegion926-2"
         style="font-style:normal;font-variant:normal;font-weight:normal;font-stretch:normal;font-family:serif;-inkscape-font-specification:serif;stroke-width:0.9448819;stroke-miterlimit:4;stroke-dasharray:none;fill:#ffffff;stroke:#000000"><rect
           id="rect928-6"
           width="339.36261"
           height="70.26284"
           x="103.03556"
           y="148.22755"
           style="font-style:normal;font-variant:normal;font-weight:normal;font-stretch:normal;font-family:serif;-inkscape-font-specification:serif;stroke-width:0.9448819;stroke-miterlimit:4;stroke-dasharray:none;fill:#ffffff;stroke:#000000" /></flowRegion><flowPara
         id="flowPara930-7"
         style="font-style:normal;font-variant:normal;font-weight:bold;font-stretch:normal;font-size:26.66666794px;font-family:serif;-inkscape-font-specification:'serif Bold';stroke:#000000;stroke-width:0.9448819;stroke-miterlimit:4;stroke-dasharray:none;stroke-opacity:1;fill:#ffffff">DSCHUNGEL IX</flowPara></flowRoot>    <flowRoot
       xml:space="preserve"
       id="flowRoot924-5"
       style="font-style:normal;font-variant:normal;font-weight:normal;font-stretch:normal;font-size:40px;line-height:1.25;font-family:serif;-inkscape-font-specification:serif;letter-spacing:0px;word-spacing:0px;fill:#ffffff;fill-opacity:1;stroke:#000000;stroke-width:0.9448819;stroke-miterlimit:4;stroke-dasharray:none"
       transform="matrix(0.26458333,0,0,0.26458333,188.56282,158.14474)"><flowRegion
         id="flowRegion926-6"
         style="font-style:normal;font-variant:normal;font-weight:normal;font-stretch:normal;font-family:serif;-inkscape-font-specification:serif;stroke-width:0.9448819;stroke-miterlimit:4;stroke-dasharray:none;fill:#ffffff;stroke:#000000"><rect
           id="rect928-9"
           width="339.36261"
           height="70.26284"
           x="103.03556"
           y="148.22755"
           style="font-style:normal;font-variant:normal;font-weight:normal;font-stretch:normal;font-family:serif;-inkscape-font-specification:serif;stroke-width:0.9448819;stroke-miterlimit:4;stroke-dasharray:none;fill:#ffffff;stroke:#000000" /></flowRegion><flowPara
         id="flowPara930-8"
         style="font-style:normal;font-variant:normal;font-weight:bold;font-stretch:normal;font-size:26.66666794px;font-family:serif;-inkscape-font-specification:'serif Bold';stroke:#000000;stroke-width:0.9448819;stroke-miterlimit:4;stroke-dasharray:none;stroke-opacity:1;fill:#ffffff">DSCHUNGEL VI</flowPara></flowRoot>    <flowRoot
       xml:space="preserve"
       id="flowRoot924-7"
       style="font-style:normal;font-variant:normal;font-weight:normal;font-stretch:normal;font-size:40px;line-height:1.25;font-family:serif;-inkscape-font-specification:serif;letter-spacing:0px;word-spacing:0px;fill:#ffffff;fill-opacity:1;stroke:#000000;stroke-width:0.9448819;stroke-miterlimit:4;stroke-dasharray:none"
       transform="matrix(0.26458333,0,0,0.26458333,94.675685,158.14474)"><flowRegion
         id="flowRegion926-28"
         style="font-style:normal;font-variant:normal;font-weight:normal;font-stretch:normal;font-family:serif;-inkscape-font-specification:serif;stroke-width:0.9448819;stroke-miterlimit:4;stroke-dasharray:none;fill:#ffffff;stroke:#000000"><rect
           id="rect928-2"
           width="339.36261"
           height="70.26284"
           x="103.03556"
           y="148.22755"
           style="font-style:normal;font-variant:normal;font-weight:normal;font-stretch:normal;font-family:serif;-inkscape-font-specification:serif;stroke-width:0.9448819;stroke-miterlimit:4;stroke-dasharray:none;fill:#ffffff;stroke:#000000" /></flowRegion><flowPara
         id="flowPara930-9"
         style="font-style:normal;font-variant:normal;font-weight:bold;font-stretch:normal;font-size:26.66666794px;font-family:serif;-inkscape-font-specification:'serif Bold';stroke:#000000;stroke-width:0.9448819;stroke-miterlimit:4;stroke-dasharray:none;stroke-opacity:1;fill:#ffffff">DSCHUNGEL V</flowPara></flowRoot>    <flowRoot
       xml:space="preserve"
       id="flowRoot924-9"
       style="font-style:normal;font-variant:normal;font-weight:normal;font-stretch:normal;font-size:40px;line-height:1.25;font-family:serif;-inkscape-font-specification:serif;letter-spacing:0px;word-spacing:0px;fill:#ffffff;fill-opacity:1;stroke:#000000;stroke-width:0.9448819;stroke-miterlimit:4;stroke-dasharray:none"
       transform="matrix(0.26458333,0,0,0.26458333,-7.4016861,158.14474)"><flowRegion
         id="flowRegion926-60"
         style="font-style:normal;font-variant:normal;font-weight:normal;font-stretch:normal;font-family:serif;-inkscape-font-specification:serif;stroke-width:0.9448819;stroke-miterlimit:4;stroke-dasharray:none;fill:#ffffff;stroke:#000000"><rect
           id="rect928-27"
           width="339.36261"
           height="70.26284"
           x="103.03556"
           y="148.22755"
           style="font-style:normal;font-variant:normal;font-weight:normal;font-stretch:normal;font-family:serif;-inkscape-font-specification:serif;stroke-width:0.9448819;stroke-miterlimit:4;stroke-dasharray:none;fill:#ffffff;stroke:#000000" /></flowRegion><flowPara
         id="flowPara930-6"
         style="font-style:normal;font-variant:normal;font-weight:bold;font-stretch:normal;font-size:26.66666794px;font-family:serif;-inkscape-font-specification:'serif Bold';stroke:#000000;stroke-width:0.9448819;stroke-miterlimit:4;stroke-dasharray:none;stroke-opacity:1;fill:#ffffff">DSCHUNGEL IV</flowPara></flowRoot>    <flowRoot
       xml:space="preserve"
       id="flowRoot924-1"
       style="font-style:normal;font-variant:normal;font-weight:normal;font-stretch:normal;font-size:40px;line-height:1.25;font-family:serif;-inkscape-font-specification:serif;letter-spacing:0px;word-spacing:0px;fill:#ffffff;fill-opacity:1;stroke:#000000;stroke-width:0.9448819;stroke-miterlimit:4;stroke-dasharray:none"
       transform="matrix(0.26458333,0,0,0.26458333,-1.4967924,92.040436)"><flowRegion
         id="flowRegion926-3"
         style="font-style:normal;font-variant:normal;font-weight:normal;font-stretch:normal;font-family:serif;-inkscape-font-specification:serif;stroke-width:0.9448819;stroke-miterlimit:4;stroke-dasharray:none;fill:#ffffff;stroke:#000000"><rect
           id="rect928-21"
           width="339.36261"
           height="70.26284"
           x="103.03556"
           y="148.22755"
           style="font-style:normal;font-variant:normal;font-weight:normal;font-stretch:normal;font-family:serif;-inkscape-font-specification:serif;stroke-width:0.9448819;stroke-miterlimit:4;stroke-dasharray:none;fill:#ffffff;stroke:#000000" /></flowRegion><flowPara
         id="flowPara930-5"
         style="font-style:normal;font-variant:normal;font-weight:bold;font-stretch:normal;font-size:26.66666794px;font-family:serif;-inkscape-font-specification:'serif Bold';stroke:#000000;stroke-width:0.9448819;stroke-miterlimit:4;stroke-dasharray:none;stroke-opacity:1;fill:#ffffff">DSCHUNGEL I</flowPara></flowRoot>    <flowRoot
       xml:space="preserve"
       id="flowRoot924-99"
       style="font-style:normal;font-variant:normal;font-weight:normal;font-stretch:normal;font-size:40px;line-height:1.25;font-family:serif;-inkscape-font-specification:serif;letter-spacing:0px;word-spacing:0px;fill:#ffffff;fill-opacity:1;stroke:#000000;stroke-width:0.9448819;stroke-miterlimit:4;stroke-dasharray:none"
       transform="matrix(0.26458333,0,0,0.26458333,93.965995,92.040436)"><flowRegion
         id="flowRegion926-1"
         style="font-style:normal;font-variant:normal;font-weight:normal;font-stretch:normal;font-family:serif;-inkscape-font-specification:serif;stroke-width:0.9448819;stroke-miterlimit:4;stroke-dasharray:none;fill:#ffffff;stroke:#000000"><rect
           id="rect928-4"
           width="339.36261"
           height="70.26284"
           x="103.03556"
           y="148.22755"
           style="font-style:normal;font-variant:normal;font-weight:normal;font-stretch:normal;font-family:serif;-inkscape-font-specification:serif;stroke-width:0.9448819;stroke-miterlimit:4;stroke-dasharray:none;fill:#ffffff;stroke:#000000" /></flowRegion><flowPara
         id="flowPara930-91"
         style="font-style:normal;font-variant:normal;font-weight:bold;font-stretch:normal;font-size:26.66666794px;font-family:serif;-inkscape-font-specification:'serif Bold';stroke:#000000;stroke-width:0.9448819;stroke-miterlimit:4;stroke-dasharray:none;stroke-opacity:1;fill:#ffffff">DSCHUNGEL II</flowPara></flowRoot>    <flowRoot
       xml:space="preserve"
       id="flowRoot924-0"
       style="font-style:normal;font-variant:normal;font-weight:normal;font-stretch:normal;font-size:40px;line-height:1.25;font-family:serif;-inkscape-font-specification:serif;letter-spacing:0px;word-spacing:0px;fill:#ffffff;fill-opacity:1;stroke:#000000;stroke-width:0.9448819;stroke-miterlimit:4;stroke-dasharray:none"
       transform="matrix(0.26458333,0,0,0.26458333,187.41905,92.040436)"><flowRegion
         id="flowRegion926-7"
         style="font-style:normal;font-variant:normal;font-weight:normal;font-stretch:normal;font-family:serif;-inkscape-font-specification:serif;stroke-width:0.9448819;stroke-miterlimit:4;stroke-dasharray:none;fill:#ffffff;stroke:#000000"><rect
           id="rect928-5"
           width="339.36261"
           height="70.26284"
           x="103.03556"
           y="148.22755"
           style="font-style:normal;font-variant:normal;font-weight:normal;font-stretch:normal;font-family:serif;-inkscape-font-specification:serif;stroke-width:0.9448819;stroke-miterlimit:4;stroke-dasharray:none;fill:#ffffff;stroke:#000000" /></flowRegion><flowPara
         id="flowPara930-87"
         style="font-style:normal;font-variant:normal;font-weight:bold;font-stretch:normal;font-size:26.66666794px;font-family:serif;-inkscape-font-specification:'serif Bold';stroke:#000000;stroke-width:0.9448819;stroke-miterlimit:4;stroke-dasharray:none;stroke-opacity:1;fill:#ffffff">DSCHUNGEL III</flowPara></flowRoot>    <flowRoot
       xml:space="preserve"
       id="flowRoot1860"
       style="font-style:normal;font-weight:normal;font-size:40px;line-height:1.25;font-family:sans-serif;letter-spacing:0px;word-spacing:0px;fill:#000000;fill-opacity:1;stroke:none"
       transform="matrix(0.26458333,0,0,0.26458333,0,87)"><flowRegion
         id="flowRegion1862"><rect
           id="rect1864"
           width="1094.3447"
           height="43.962929"
           x="24.298262"
           y="741.25256" /></flowRegion><flowPara
         id="flowPara1866">https://pixabay.com/de/users/bere69-3506936/?utm_source=link-attribution&amp;amp;utm_medium=referral&amp;amp;utm_campaign=image&amp;amp;utm_content=1865639&quot;</flowPara></flowRoot>    <flowRoot
       xml:space="preserve"
       id="flowRoot1868"
       style="fill:black;fill-opacity:1;stroke:none;font-family:sans-serif;font-style:normal;font-weight:normal;font-size:40px;line-height:1.25;letter-spacing:0px;word-spacing:0px"><flowRegion
         id="flowRegion1870"><rect
           id="rect1872"
           width="1028.1333"
           height="128.69344"
           x="60.811184"
           y="812.08557" /></flowRegion><flowPara
         id="flowPara1874"></flowPara></flowRoot>    <flowRoot
       xml:space="preserve"
       id="flowRoot1876"
       style="font-style:normal;font-weight:normal;font-size:16px;line-height:1.25;font-family:sans-serif;letter-spacing:0px;word-spacing:0px;fill:#000000;fill-opacity:1;stroke:none"
       transform="matrix(0.26458333,0,0,0.26458333,-8.9802559,49.582266)"><flowRegion
         id="flowRegion1878"><rect
           id="rect1880"
           width="1411.3851"
           height="38.1838"
           x="52.325901"
           y="905.42365" /></flowRegion><flowPara
         id="flowPara1882">Picture by bere von awstburg via Pixabay: https://pixabay.com/de/users/bere69-3506936</flowPara></flowRoot>  </g>
</svg>
