<?xml version="1.0" encoding="UTF-8" standalone="no"?>
<!-- Created with Inkscape (http://www.inkscape.org/) -->

<svg
   xmlns:dc="http://purl.org/dc/elements/1.1/"
   xmlns:cc="http://creativecommons.org/ns#"
   xmlns:rdf="http://www.w3.org/1999/02/22-rdf-syntax-ns#"
   xmlns:svg="http://www.w3.org/2000/svg"
   xmlns="http://www.w3.org/2000/svg"
   xmlns:xlink="http://www.w3.org/1999/xlink"
   xmlns:sodipodi="http://sodipodi.sourceforge.net/DTD/sodipodi-0.dtd"
   xmlns:inkscape="http://www.inkscape.org/namespaces/inkscape"
   width="297mm"
   height="210mm"
   viewBox="0 0 297 210"
   version="1.1"
   id="svg8"
   inkscape:version="0.92.3 (2405546, 2018-03-11)"
   sodipodi:docname="Regionskarten_Gebirge.svg">
  <defs
     id="defs2" />
  <sodipodi:namedview
     id="base"
     pagecolor="#ffffff"
     bordercolor="#666666"
     borderopacity="1.0"
     inkscape:pageopacity="0.0"
     inkscape:pageshadow="2"
     inkscape:zoom="0.70710678"
     inkscape:cx="508.62535"
     inkscape:cy="361.87908"
     inkscape:document-units="mm"
     inkscape:current-layer="layer1"
     showgrid="false"
     inkscape:snap-grids="false"
     inkscape:window-width="1366"
     inkscape:window-height="713"
     inkscape:window-x="0"
     inkscape:window-y="27"
     inkscape:window-maximized="1"
     showguides="true"
     inkscape:guide-bbox="true">
    <sodipodi:guide
       position="83.788997,143.12283"
       orientation="1,0"
       id="guide1174"
       inkscape:locked="false" />
    <sodipodi:guide
       position="74.033659,156.25245"
       orientation="0,1"
       id="guide1351"
       inkscape:locked="false" />
    <sodipodi:guide
       position="182.5625,163.09672"
       orientation="1,0"
       id="guide1353"
       inkscape:locked="false" />
    <sodipodi:guide
       position="279.32441,138.90625"
       orientation="1,0"
       id="guide1355"
       inkscape:locked="false" />
    <sodipodi:guide
       position="199.57143,90.147319"
       orientation="0,1"
       id="guide1357"
       inkscape:locked="false" />
    <sodipodi:guide
       position="209.77679,22.678571"
       orientation="0,1"
       id="guide1359"
       inkscape:locked="false" />
  </sodipodi:namedview>
  <metadata
     id="metadata5">
    <rdf:RDF>
      <cc:Work
         rdf:about="">
        <dc:format>image/svg+xml</dc:format>
        <dc:type
           rdf:resource="http://purl.org/dc/dcmitype/StillImage" />
        <dc:title />
      </cc:Work>
    </rdf:RDF>
  </metadata>
  <g
     inkscape:label="Ebene 1"
     inkscape:groupmode="layer"
     id="layer1"
     transform="translate(0,-87)">
    <image
       sodipodi:absref="/home/thuri/Projects/holz11/images/src/Gebirge.jpg"
       xlink:href="Gebirge.jpg"
       width="85.26458"
       height="51.264572"
       preserveAspectRatio="none"
       id="image943"
       x="6.428915"
       y="97.061295" />
    <image
       sodipodi:absref="/home/thuri/Projects/holz11/images/src/Gebirge.jpg"
       xlink:href="Gebirge.jpg"
       y="97.061295"
       x="105.31104"
       id="image943-3"
       preserveAspectRatio="none"
       height="51.264572"
       width="85.26458" />
    <image
       sodipodi:absref="/home/thuri/Projects/holz11/images/src/Gebirge.jpg"
       xlink:href="Gebirge.jpg"
       y="164.45992"
       x="6.428915"
       id="image943-6"
       preserveAspectRatio="none"
       height="51.264572"
       width="85.26458" />
    <image
       sodipodi:absref="/home/thuri/Projects/holz11/images/src/Gebirge.jpg"
       xlink:href="Gebirge.jpg"
       y="97.061295"
       x="202.47316"
       id="image943-7"
       preserveAspectRatio="none"
       height="51.264572"
       width="85.26458" />
    <image
       sodipodi:absref="/home/thuri/Projects/holz11/images/src/Gebirge.jpg"
       xlink:href="Gebirge.jpg"
       y="164.4599"
       x="105.31104"
       id="image943-5"
       preserveAspectRatio="none"
       height="51.264572"
       width="85.26458" />
    <image
       sodipodi:absref="/home/thuri/Projects/holz11/images/src/Gebirge.jpg"
       xlink:href="Gebirge.jpg"
       y="164.4599"
       x="202.47316"
       id="image943-35"
       preserveAspectRatio="none"
       height="51.264572"
       width="85.26458" />
    <image
       sodipodi:absref="/home/thuri/Projects/holz11/images/src/Gebirge.jpg"
       xlink:href="Gebirge.jpg"
       y="231.85849"
       x="6.428915"
       id="image943-62"
       preserveAspectRatio="none"
       height="51.264572"
       width="85.26458" />
    <image
       sodipodi:absref="/home/thuri/Projects/holz11/images/src/Gebirge.jpg"
       xlink:href="Gebirge.jpg"
       y="231.85849"
       x="105.31104"
       id="image943-9"
       preserveAspectRatio="none"
       height="51.264572"
       width="85.26458" />
    <image
       sodipodi:absref="/home/thuri/Projects/holz11/images/src/Gebirge.jpg"
       xlink:href="Gebirge.jpg"
       y="231.85849"
       x="202.47316"
       id="image943-1"
       preserveAspectRatio="none"
       height="51.264572"
       width="85.26458" />
    <flowRoot
       xml:space="preserve"
       id="flowRoot916"
       style="font-style:normal;font-variant:normal;font-weight:normal;font-stretch:normal;font-size:40px;line-height:1.25;font-family:serif;-inkscape-font-specification:serif;letter-spacing:0px;word-spacing:0px;fill:#000000;fill-opacity:1;stroke:none"
       transform="scale(0.26458333)"><flowRegion
         id="flowRegion918"
         style="font-style:normal;font-variant:normal;font-weight:normal;font-stretch:normal;font-family:serif;-inkscape-font-specification:serif"><rect
           id="rect920"
           width="254.53856"
           height="73.157433"
           x="38.385796"
           y="122.46867"
           style="font-style:normal;font-variant:normal;font-weight:normal;font-stretch:normal;font-family:serif;-inkscape-font-specification:serif" /></flowRegion><flowPara
         id="flowPara922" /></flowRoot>    <rect
       style="opacity:1;fill:none;fill-opacity:1;fill-rule:evenodd;stroke:#000001;stroke-width:5;stroke-linejoin:miter;stroke-miterlimit:4;stroke-dasharray:none;stroke-dashoffset:0;stroke-opacity:1"
       id="rect882"
       width="85.26458"
       height="51.26458"
       x="6.428915"
       y="97.061295" />
    <flowRoot
       xml:space="preserve"
       id="flowRoot924"
       style="font-style:normal;font-variant:normal;font-weight:normal;font-stretch:normal;font-size:40px;line-height:1.25;font-family:serif;-inkscape-font-specification:serif;letter-spacing:0px;word-spacing:0px;fill:#ffffff;fill-opacity:1;stroke:#000000;stroke-width:0.94488192;stroke-miterlimit:4;stroke-dasharray:none;"
       transform="matrix(0.26458333,0,0,0.26458333,88.632284,225.61501)"><flowRegion
         id="flowRegion926"
         style="font-style:normal;font-variant:normal;font-weight:normal;font-stretch:normal;font-family:serif;-inkscape-font-specification:serif;stroke-width:0.94488192;stroke-miterlimit:4;stroke-dasharray:none;fill:#ffffff;stroke:#000000;"><rect
           id="rect928"
           width="339.36261"
           height="70.26284"
           x="103.03556"
           y="148.22755"
           style="font-style:normal;font-variant:normal;font-weight:normal;font-stretch:normal;font-family:serif;-inkscape-font-specification:serif;stroke-width:0.94488192;stroke-miterlimit:4;stroke-dasharray:none;fill:#ffffff;stroke:#000000;" /></flowRegion><flowPara
         id="flowPara930"
         style="font-style:normal;font-variant:normal;font-weight:bold;font-stretch:normal;font-size:32px;font-family:serif;-inkscape-font-specification:'serif Bold';stroke:#000000;stroke-width:0.94488192;stroke-miterlimit:4;stroke-dasharray:none;stroke-opacity:1;fill:#ffffff;">GEBIRGE VIII</flowPara></flowRoot>    <rect
       style="opacity:1;fill:none;fill-opacity:1;fill-rule:evenodd;stroke:#000001;stroke-width:5;stroke-linejoin:miter;stroke-miterlimit:4;stroke-dasharray:none;stroke-dashoffset:0;stroke-opacity:1"
       id="rect882-5"
       width="85.26458"
       height="51.26458"
       x="6.428915"
       y="164.4599" />
    <rect
       style="opacity:1;fill:none;fill-opacity:1;fill-rule:evenodd;stroke:#000001;stroke-width:5;stroke-linejoin:miter;stroke-miterlimit:4;stroke-dasharray:none;stroke-dashoffset:0;stroke-opacity:1"
       id="rect882-5-6"
       width="85.26458"
       height="51.26458"
       x="6.428915"
       y="231.85849" />
    <rect
       style="opacity:1;fill:none;fill-opacity:1;fill-rule:evenodd;stroke:#000001;stroke-width:5;stroke-linejoin:miter;stroke-miterlimit:4;stroke-dasharray:none;stroke-dashoffset:0;stroke-opacity:1"
       id="rect882-5-6-9-3-7"
       width="85.26458"
       height="51.26458"
       x="105.31104"
       y="97.061295" />
    <rect
       style="opacity:1;fill:none;fill-opacity:1;fill-rule:evenodd;stroke:#000001;stroke-width:5;stroke-linejoin:miter;stroke-miterlimit:4;stroke-dasharray:none;stroke-dashoffset:0;stroke-opacity:1"
       id="rect882-5-6-9-3"
       width="85.26458"
       height="51.26458"
       x="105.31104"
       y="164.4599" />
    <rect
       style="opacity:1;fill:none;fill-opacity:1;fill-rule:evenodd;stroke:#000001;stroke-width:5;stroke-linejoin:miter;stroke-miterlimit:4;stroke-dasharray:none;stroke-dashoffset:0;stroke-opacity:1"
       id="rect882-5-6-9"
       width="85.26458"
       height="51.26458"
       x="105.31104"
       y="231.85849" />
    <rect
       style="opacity:1;fill:none;fill-opacity:1;fill-rule:evenodd;stroke:#000001;stroke-width:5;stroke-linejoin:miter;stroke-miterlimit:4;stroke-dasharray:none;stroke-dashoffset:0;stroke-opacity:1"
       id="rect882-5-6-9-3-7-4"
       width="85.26458"
       height="51.26458"
       x="202.47316"
       y="97.061295" />
    <rect
       style="opacity:1;fill:none;fill-opacity:1;fill-rule:evenodd;stroke:#000001;stroke-width:5;stroke-linejoin:miter;stroke-miterlimit:4;stroke-dasharray:none;stroke-dashoffset:0;stroke-opacity:1"
       id="rect882-5-6-9-3-7-5"
       width="85.26458"
       height="51.26458"
       x="202.47316"
       y="164.4599" />
    <rect
       style="opacity:1;fill:none;fill-opacity:1;fill-rule:evenodd;stroke:#000001;stroke-width:5;stroke-linejoin:miter;stroke-miterlimit:4;stroke-dasharray:none;stroke-dashoffset:0;stroke-opacity:1"
       id="rect882-5-6-9-3-7-2"
       width="85.26458"
       height="51.26458"
       x="202.47316"
       y="231.85849" />
    <flowRoot
       xml:space="preserve"
       id="flowRoot924-2"
       style="font-style:normal;font-variant:normal;font-weight:normal;font-stretch:normal;font-size:40px;line-height:1.25;font-family:serif;-inkscape-font-specification:serif;letter-spacing:0px;word-spacing:0px;fill:#ffffff;fill-opacity:1;stroke:#000000;stroke-width:0.94488192;stroke-miterlimit:4;stroke-dasharray:none;"
       transform="matrix(0.26458333,0,0,0.26458333,192.93981,225.61501)"><flowRegion
         id="flowRegion926-1"
         style="font-style:normal;font-variant:normal;font-weight:normal;font-stretch:normal;font-family:serif;-inkscape-font-specification:serif;stroke-width:0.94488192;stroke-miterlimit:4;stroke-dasharray:none;fill:#ffffff;stroke:#000000;"><rect
           id="rect928-0"
           width="339.36261"
           height="70.26284"
           x="103.03556"
           y="148.22755"
           style="font-style:normal;font-variant:normal;font-weight:normal;font-stretch:normal;font-family:serif;-inkscape-font-specification:serif;stroke-width:0.94488192;stroke-miterlimit:4;stroke-dasharray:none;fill:#ffffff;stroke:#000000;" /></flowRegion><flowPara
         id="flowPara930-5"
         style="font-style:normal;font-variant:normal;font-weight:bold;font-stretch:normal;font-size:32px;font-family:serif;-inkscape-font-specification:'serif Bold';stroke:#000000;stroke-width:0.94488192;stroke-miterlimit:4;stroke-dasharray:none;stroke-opacity:1;fill:#ffffff;">GEBIRGE IX</flowPara></flowRoot>    <flowRoot
       xml:space="preserve"
       id="flowRoot924-1"
       style="font-style:normal;font-variant:normal;font-weight:normal;font-stretch:normal;font-size:40px;line-height:1.25;font-family:serif;-inkscape-font-specification:serif;letter-spacing:0px;word-spacing:0px;fill:#ffffff;fill-opacity:1;stroke:#000000;stroke-width:0.94488192;stroke-miterlimit:4;stroke-dasharray:none;"
       transform="matrix(0.26458333,0,0,0.26458333,-6.1732662,225.61501)"><flowRegion
         id="flowRegion926-10"
         style="font-style:normal;font-variant:normal;font-weight:normal;font-stretch:normal;font-family:serif;-inkscape-font-specification:serif;stroke-width:0.94488192;stroke-miterlimit:4;stroke-dasharray:none;fill:#ffffff;stroke:#000000;"><rect
           id="rect928-8"
           width="339.36261"
           height="70.26284"
           x="103.03556"
           y="148.22755"
           style="font-style:normal;font-variant:normal;font-weight:normal;font-stretch:normal;font-family:serif;-inkscape-font-specification:serif;stroke-width:0.94488192;stroke-miterlimit:4;stroke-dasharray:none;fill:#ffffff;stroke:#000000;" /></flowRegion><flowPara
         id="flowPara930-50"
         style="font-style:normal;font-variant:normal;font-weight:bold;font-stretch:normal;font-size:32px;font-family:serif;-inkscape-font-specification:'serif Bold';stroke:#000000;stroke-width:0.94488192;stroke-miterlimit:4;stroke-dasharray:none;stroke-opacity:1;fill:#ffffff;">GEBIRGE VII</flowPara></flowRoot>    <flowRoot
       xml:space="preserve"
       id="flowRoot924-6"
       style="font-style:normal;font-variant:normal;font-weight:normal;font-stretch:normal;font-size:40px;line-height:1.25;font-family:serif;-inkscape-font-specification:serif;letter-spacing:0px;word-spacing:0px;fill:#ffffff;fill-opacity:1;stroke:#000000;stroke-width:0.94488192;stroke-miterlimit:4;stroke-dasharray:none;"
       transform="matrix(0.26458333,0,0,0.26458333,-2.7254147,158.14667)"><flowRegion
         id="flowRegion926-4"
         style="font-style:normal;font-variant:normal;font-weight:normal;font-stretch:normal;font-family:serif;-inkscape-font-specification:serif;stroke-width:0.94488192;stroke-miterlimit:4;stroke-dasharray:none;fill:#ffffff;stroke:#000000;"><rect
           id="rect928-6"
           width="339.36261"
           height="70.26284"
           x="103.03556"
           y="148.22755"
           style="font-style:normal;font-variant:normal;font-weight:normal;font-stretch:normal;font-family:serif;-inkscape-font-specification:serif;stroke-width:0.94488192;stroke-miterlimit:4;stroke-dasharray:none;fill:#ffffff;stroke:#000000;" /></flowRegion><flowPara
         id="flowPara930-2"
         style="font-style:normal;font-variant:normal;font-weight:bold;font-stretch:normal;font-size:32px;font-family:serif;-inkscape-font-specification:'serif Bold';stroke:#000000;stroke-width:0.94488192;stroke-miterlimit:4;stroke-dasharray:none;stroke-opacity:1;fill:#ffffff;">GEBIRGE IV</flowPara></flowRoot>    <flowRoot
       xml:space="preserve"
       id="flowRoot924-5"
       style="font-style:normal;font-variant:normal;font-weight:normal;font-stretch:normal;font-size:40px;line-height:1.25;font-family:serif;-inkscape-font-specification:serif;letter-spacing:0px;word-spacing:0px;fill:#ffffff;fill-opacity:1;stroke:#000000;stroke-width:0.94488192;stroke-miterlimit:4;stroke-dasharray:none;"
       transform="matrix(0.26458333,0,0,0.26458333,100.01764,158.14667)"><flowRegion
         id="flowRegion926-8"
         style="font-style:normal;font-variant:normal;font-weight:normal;font-stretch:normal;font-family:serif;-inkscape-font-specification:serif;stroke-width:0.94488192;stroke-miterlimit:4;stroke-dasharray:none;fill:#ffffff;stroke:#000000;"><rect
           id="rect928-62"
           width="339.36261"
           height="70.26284"
           x="103.03556"
           y="148.22755"
           style="font-style:normal;font-variant:normal;font-weight:normal;font-stretch:normal;font-family:serif;-inkscape-font-specification:serif;stroke-width:0.94488192;stroke-miterlimit:4;stroke-dasharray:none;fill:#ffffff;stroke:#000000;" /></flowRegion><flowPara
         id="flowPara930-8"
         style="font-style:normal;font-variant:normal;font-weight:bold;font-stretch:normal;font-size:32px;font-family:serif;-inkscape-font-specification:'serif Bold';stroke:#000000;stroke-width:0.94488192;stroke-miterlimit:4;stroke-dasharray:none;stroke-opacity:1;fill:#ffffff;">GEBIRGE V</flowPara></flowRoot>    <flowRoot
       xml:space="preserve"
       id="flowRoot924-4"
       style="font-style:normal;font-variant:normal;font-weight:normal;font-stretch:normal;font-size:40px;line-height:1.25;font-family:serif;-inkscape-font-specification:serif;letter-spacing:0px;word-spacing:0px;fill:#ffffff;fill-opacity:1;stroke:#000000;stroke-width:0.94488192;stroke-miterlimit:4;stroke-dasharray:none;"
       transform="matrix(0.26458333,0,0,0.26458333,193.33255,158.14667)"><flowRegion
         id="flowRegion926-7"
         style="font-style:normal;font-variant:normal;font-weight:normal;font-stretch:normal;font-family:serif;-inkscape-font-specification:serif;stroke-width:0.94488192;stroke-miterlimit:4;stroke-dasharray:none;fill:#ffffff;stroke:#000000;"><rect
           id="rect928-2"
           width="339.36261"
           height="70.26284"
           x="103.03556"
           y="148.22755"
           style="font-style:normal;font-variant:normal;font-weight:normal;font-stretch:normal;font-family:serif;-inkscape-font-specification:serif;stroke-width:0.94488192;stroke-miterlimit:4;stroke-dasharray:none;fill:#ffffff;stroke:#000000;" /></flowRegion><flowPara
         id="flowPara930-4"
         style="font-style:normal;font-variant:normal;font-weight:bold;font-stretch:normal;font-size:32px;font-family:serif;-inkscape-font-specification:'serif Bold';stroke:#000000;stroke-width:0.94488192;stroke-miterlimit:4;stroke-dasharray:none;stroke-opacity:1;fill:#ffffff;">GEBIRGE VI</flowPara></flowRoot>    <flowRoot
       xml:space="preserve"
       id="flowRoot924-0"
       style="font-style:normal;font-variant:normal;font-weight:normal;font-stretch:normal;font-size:40px;line-height:1.25;font-family:serif;-inkscape-font-specification:serif;letter-spacing:0px;word-spacing:0px;fill:#ffffff;fill-opacity:1;stroke:#000000;stroke-width:0.94488192;stroke-miterlimit:4;stroke-dasharray:none;"
       transform="matrix(0.26458333,0,0,0.26458333,4.3604576,92.042485)"><flowRegion
         id="flowRegion926-6"
         style="font-style:normal;font-variant:normal;font-weight:normal;font-stretch:normal;font-family:serif;-inkscape-font-specification:serif;stroke-width:0.94488192;stroke-miterlimit:4;stroke-dasharray:none;fill:#ffffff;stroke:#000000;"><rect
           id="rect928-29"
           width="339.36261"
           height="70.26284"
           x="103.03556"
           y="148.22755"
           style="font-style:normal;font-variant:normal;font-weight:normal;font-stretch:normal;font-family:serif;-inkscape-font-specification:serif;stroke-width:0.94488192;stroke-miterlimit:4;stroke-dasharray:none;fill:#ffffff;stroke:#000000;" /></flowRegion><flowPara
         id="flowPara930-9"
         style="font-style:normal;font-variant:normal;font-weight:bold;font-stretch:normal;font-size:32px;font-family:serif;-inkscape-font-specification:'serif Bold';stroke:#000000;stroke-width:0.94488192;stroke-miterlimit:4;stroke-dasharray:none;stroke-opacity:1;fill:#ffffff;">GEBIRGE I</flowPara></flowRoot>    <flowRoot
       xml:space="preserve"
       id="flowRoot924-08"
       style="font-style:normal;font-variant:normal;font-weight:normal;font-stretch:normal;font-size:40px;line-height:1.25;font-family:serif;-inkscape-font-specification:serif;letter-spacing:0px;word-spacing:0px;fill:#ffffff;fill-opacity:1;stroke:#000000;stroke-width:0.94488192;stroke-miterlimit:4;stroke-dasharray:none;"
       transform="matrix(0.26458333,0,0,0.26458333,99.166008,92.042485)"><flowRegion
         id="flowRegion926-13"
         style="font-style:normal;font-variant:normal;font-weight:normal;font-stretch:normal;font-family:serif;-inkscape-font-specification:serif;stroke-width:0.94488192;stroke-miterlimit:4;stroke-dasharray:none;fill:#ffffff;stroke:#000000;"><rect
           id="rect928-1"
           width="339.36261"
           height="70.26284"
           x="103.03556"
           y="148.22755"
           style="font-style:normal;font-variant:normal;font-weight:normal;font-stretch:normal;font-family:serif;-inkscape-font-specification:serif;stroke-width:0.94488192;stroke-miterlimit:4;stroke-dasharray:none;fill:#ffffff;stroke:#000000;" /></flowRegion><flowPara
         id="flowPara930-1"
         style="font-style:normal;font-variant:normal;font-weight:bold;font-stretch:normal;font-size:32px;font-family:serif;-inkscape-font-specification:'serif Bold';stroke:#000000;stroke-width:0.94488192;stroke-miterlimit:4;stroke-dasharray:none;stroke-opacity:1;fill:#ffffff;">GEBIRGE II</flowPara></flowRoot>    <flowRoot
       xml:space="preserve"
       id="flowRoot924-03"
       style="font-style:normal;font-variant:normal;font-weight:normal;font-stretch:normal;font-size:40px;line-height:1.25;font-family:serif;-inkscape-font-specification:serif;letter-spacing:0px;word-spacing:0px;fill:#ffffff;fill-opacity:1;stroke:#000000;stroke-width:0.94488192;stroke-miterlimit:4;stroke-dasharray:none;"
       transform="matrix(0.26458333,0,0,0.26458333,191.96002,92.042485)"><flowRegion
         id="flowRegion926-40"
         style="font-style:normal;font-variant:normal;font-weight:normal;font-stretch:normal;font-family:serif;-inkscape-font-specification:serif;stroke-width:0.94488192;stroke-miterlimit:4;stroke-dasharray:none;fill:#ffffff;stroke:#000000;"><rect
           id="rect928-3"
           width="339.36261"
           height="70.26284"
           x="103.03556"
           y="148.22755"
           style="font-style:normal;font-variant:normal;font-weight:normal;font-stretch:normal;font-family:serif;-inkscape-font-specification:serif;stroke-width:0.94488192;stroke-miterlimit:4;stroke-dasharray:none;fill:#ffffff;stroke:#000000;" /></flowRegion><flowPara
         id="flowPara930-91"
         style="font-style:normal;font-variant:normal;font-weight:bold;font-stretch:normal;font-size:32px;font-family:serif;-inkscape-font-specification:'serif Bold';stroke:#000000;stroke-width:0.94488192;stroke-miterlimit:4;stroke-dasharray:none;stroke-opacity:1;fill:#ffffff;">GEBIRGE III</flowPara></flowRoot>    <flowRoot
       xml:space="preserve"
       id="flowRoot876"
       style="font-style:normal;font-weight:normal;font-size:16px;line-height:1.25;font-family:sans-serif;letter-spacing:0px;word-spacing:0px;fill:#000000;fill-opacity:1;stroke:none"
       transform="matrix(0.26458333,0,0,0.26458333,22.45064,65.671892)"><flowRegion
         id="flowRegion878"><rect
           id="rect880"
           width="784.88855"
           height="87.681244"
           x="-59.396969"
           y="844.61249" /></flowRegion><flowPara
         id="flowPara882">Picture by Pexels via Pixabay: https://pixabay.com/de/users/Pexels-2286921/</flowPara></flowRoot>  </g>
</svg>
