<?xml version="1.0" encoding="UTF-8" standalone="no"?>
<!-- Created with Inkscape (http://www.inkscape.org/) -->

<svg
   xmlns:dc="http://purl.org/dc/elements/1.1/"
   xmlns:cc="http://creativecommons.org/ns#"
   xmlns:rdf="http://www.w3.org/1999/02/22-rdf-syntax-ns#"
   xmlns:svg="http://www.w3.org/2000/svg"
   xmlns="http://www.w3.org/2000/svg"
   xmlns:xlink="http://www.w3.org/1999/xlink"
   xmlns:sodipodi="http://sodipodi.sourceforge.net/DTD/sodipodi-0.dtd"
   xmlns:inkscape="http://www.inkscape.org/namespaces/inkscape"
   width="297mm"
   height="210mm"
   viewBox="0 0 297 210"
   version="1.1"
   id="svg8"
   inkscape:version="0.92.3 (2405546, 2018-03-11)"
   sodipodi:docname="Regionskarten_Aqua.svg">
  <defs
     id="defs2" />
  <sodipodi:namedview
     id="base"
     pagecolor="#ffffff"
     bordercolor="#666666"
     borderopacity="1.0"
     inkscape:pageopacity="0.0"
     inkscape:pageshadow="2"
     inkscape:zoom="0.70710678"
     inkscape:cx="519.66395"
     inkscape:cy="274.15712"
     inkscape:document-units="mm"
     inkscape:current-layer="layer1"
     showgrid="false"
     inkscape:snap-grids="false"
     inkscape:window-width="1366"
     inkscape:window-height="713"
     inkscape:window-x="0"
     inkscape:window-y="27"
     inkscape:window-maximized="1"
     showguides="true"
     inkscape:guide-bbox="true">
    <sodipodi:guide
       position="83.788997,143.12283"
       orientation="1,0"
       id="guide1174"
       inkscape:locked="false" />
    <sodipodi:guide
       position="74.033659,156.25245"
       orientation="0,1"
       id="guide1351"
       inkscape:locked="false" />
    <sodipodi:guide
       position="182.5625,163.09672"
       orientation="1,0"
       id="guide1353"
       inkscape:locked="false" />
    <sodipodi:guide
       position="279.32441,138.90625"
       orientation="1,0"
       id="guide1355"
       inkscape:locked="false" />
    <sodipodi:guide
       position="199.57143,90.147319"
       orientation="0,1"
       id="guide1357"
       inkscape:locked="false" />
    <sodipodi:guide
       position="209.77679,22.678571"
       orientation="0,1"
       id="guide1359"
       inkscape:locked="false" />
  </sodipodi:namedview>
  <metadata
     id="metadata5">
    <rdf:RDF>
      <cc:Work
         rdf:about="">
        <dc:format>image/svg+xml</dc:format>
        <dc:type
           rdf:resource="http://purl.org/dc/dcmitype/StillImage" />
        <dc:title />
      </cc:Work>
    </rdf:RDF>
  </metadata>
  <g
     inkscape:label="Ebene 1"
     inkscape:groupmode="layer"
     id="layer1"
     transform="translate(0,-87)">
    <image
       sodipodi:absref="/home/thuri/Projects/holz11/images/src/Aqua.jpg"
       xlink:href="Aqua.jpg"
       y="231.85851"
       x="105.31104"
       id="image919-9"
       preserveAspectRatio="none"
       height="51.264572"
       width="85.26458" />
    <image
       sodipodi:absref="/home/thuri/Projects/holz11/images/src/Aqua.jpg"
       xlink:href="Aqua.jpg"
       y="231.85849"
       x="202.47314"
       id="image919-1"
       preserveAspectRatio="none"
       height="51.264572"
       width="85.26458" />
    <image
       sodipodi:absref="/home/thuri/Projects/holz11/images/src/Aqua.jpg"
       xlink:href="Aqua.jpg"
       y="231.85849"
       x="6.4289169"
       id="image919-62"
       preserveAspectRatio="none"
       height="51.264572"
       width="85.26458" />
    <image
       sodipodi:absref="/home/thuri/Projects/holz11/images/src/Aqua.jpg"
       xlink:href="Aqua.jpg"
       y="164.45992"
       x="202.47316"
       id="image919-35"
       preserveAspectRatio="none"
       height="51.264572"
       width="85.26458" />
    <image
       sodipodi:absref="/home/thuri/Projects/holz11/images/src/Aqua.jpg"
       xlink:href="Aqua.jpg"
       y="164.45992"
       x="105.31104"
       id="image919-5"
       preserveAspectRatio="none"
       height="51.264572"
       width="85.26458" />
    <image
       sodipodi:absref="/home/thuri/Projects/holz11/images/src/Aqua.jpg"
       xlink:href="Aqua.jpg"
       y="164.45992"
       x="6.4289169"
       id="image919-7"
       preserveAspectRatio="none"
       height="51.264572"
       width="85.26458" />
    <image
       sodipodi:absref="/home/thuri/Projects/holz11/images/src/Aqua.jpg"
       xlink:href="Aqua.jpg"
       y="97.061295"
       x="202.47314"
       id="image919-6"
       preserveAspectRatio="none"
       height="51.264572"
       width="85.26458" />
    <image
       sodipodi:absref="/home/thuri/Projects/holz11/images/src/Aqua.jpg"
       xlink:href="Aqua.jpg"
       y="97.061295"
       x="105.31104"
       id="image919-3"
       preserveAspectRatio="none"
       height="51.264572"
       width="85.26458" />
    <image
       sodipodi:absref="/home/thuri/Projects/holz11/images/src/Aqua.jpg"
       xlink:href="Aqua.jpg"
       width="85.26458"
       height="51.264572"
       preserveAspectRatio="none"
       id="image919"
       x="6.428915"
       y="97.061295" />
    <flowRoot
       xml:space="preserve"
       id="flowRoot916"
       style="font-style:normal;font-variant:normal;font-weight:normal;font-stretch:normal;font-size:40px;line-height:1.25;font-family:serif;-inkscape-font-specification:serif;letter-spacing:0px;word-spacing:0px;fill:#000000;fill-opacity:1;stroke:none"
       transform="scale(0.26458333)"><flowRegion
         id="flowRegion918"
         style="font-style:normal;font-variant:normal;font-weight:normal;font-stretch:normal;font-family:serif;-inkscape-font-specification:serif"><rect
           id="rect920"
           width="254.53856"
           height="73.157433"
           x="38.385796"
           y="122.46867"
           style="font-style:normal;font-variant:normal;font-weight:normal;font-stretch:normal;font-family:serif;-inkscape-font-specification:serif" /></flowRegion><flowPara
         id="flowPara922" /></flowRoot>    <rect
       style="opacity:1;fill:none;fill-opacity:1;fill-rule:evenodd;stroke:#000001;stroke-width:5;stroke-linejoin:miter;stroke-miterlimit:4;stroke-dasharray:none;stroke-dashoffset:0;stroke-opacity:1"
       id="rect882"
       width="85.26458"
       height="51.26458"
       x="6.428915"
       y="97.061295" />
    <flowRoot
       xml:space="preserve"
       id="flowRoot924"
       style="font-style:normal;font-variant:normal;font-weight:normal;font-stretch:normal;font-size:40px;line-height:1.25;font-family:serif;-inkscape-font-specification:serif;letter-spacing:0px;word-spacing:0px;fill:#ffffff;fill-opacity:1;stroke:#000000;stroke-width:0.9448819;stroke-miterlimit:4;stroke-dasharray:none"
       transform="matrix(0.26458333,0,0,0.26458333,13.703917,92.013659)"><flowRegion
         id="flowRegion926"
         style="font-style:normal;font-variant:normal;font-weight:normal;font-stretch:normal;font-family:serif;-inkscape-font-specification:serif;stroke-width:0.9448819;stroke-miterlimit:4;stroke-dasharray:none;fill:#ffffff;stroke:#000000"><rect
           id="rect928"
           width="225.74921"
           height="47.903622"
           x="103.03556"
           y="148.22755"
           style="font-style:normal;font-variant:normal;font-weight:normal;font-stretch:normal;font-family:serif;-inkscape-font-specification:serif;stroke-width:0.9448819;stroke-miterlimit:4;stroke-dasharray:none;fill:#ffffff;stroke:#000000" /></flowRegion><flowPara
         id="flowPara930"
         style="font-style:normal;font-variant:normal;font-weight:bold;font-stretch:normal;font-family:serif;-inkscape-font-specification:'serif Bold';stroke:#000000;stroke-opacity:1;stroke-width:0.9448819;stroke-miterlimit:4;stroke-dasharray:none;fill:#ffffff">AQUA I</flowPara></flowRoot>    <rect
       style="opacity:1;fill:none;fill-opacity:1;fill-rule:evenodd;stroke:#000001;stroke-width:5;stroke-linejoin:miter;stroke-miterlimit:4;stroke-dasharray:none;stroke-dashoffset:0;stroke-opacity:1"
       id="rect882-5"
       width="85.26458"
       height="51.26458"
       x="6.428915"
       y="164.4599" />
    <flowRoot
       xml:space="preserve"
       id="flowRoot924-5"
       style="font-style:normal;font-variant:normal;font-weight:normal;font-stretch:normal;font-size:40px;line-height:1.25;font-family:serif;-inkscape-font-specification:serif;letter-spacing:0px;word-spacing:0px;fill:#ffffff;fill-opacity:1;stroke:#000000;stroke-width:0.9448819;stroke-miterlimit:4;stroke-dasharray:none"
       transform="matrix(0.26458333,0,0,0.26458333,4.8465766,158.14476)"><flowRegion
         id="flowRegion926-3"
         style="font-style:normal;font-variant:normal;font-weight:normal;font-stretch:normal;font-family:serif;-inkscape-font-specification:serif;stroke-width:0.9448819;stroke-miterlimit:4;stroke-dasharray:none;fill:#ffffff;stroke:#000000"><rect
           id="rect928-5"
           width="248.71758"
           height="59.572098"
           x="103.03556"
           y="148.22755"
           style="font-style:normal;font-variant:normal;font-weight:normal;font-stretch:normal;font-family:serif;-inkscape-font-specification:serif;stroke-width:0.9448819;stroke-miterlimit:4;stroke-dasharray:none;fill:#ffffff;stroke:#000000" /></flowRegion><flowPara
         id="flowPara930-6"
         style="font-style:normal;font-variant:normal;font-weight:bold;font-stretch:normal;font-family:serif;-inkscape-font-specification:'serif Bold';stroke:#000000;stroke-opacity:1;stroke-width:0.9448819;stroke-miterlimit:4;stroke-dasharray:none;fill:#ffffff">AQUA IV</flowPara></flowRoot>    <rect
       style="opacity:1;fill:none;fill-opacity:1;fill-rule:evenodd;stroke:#000001;stroke-width:5;stroke-linejoin:miter;stroke-miterlimit:4;stroke-dasharray:none;stroke-dashoffset:0;stroke-opacity:1"
       id="rect882-5-6"
       width="85.26458"
       height="51.26458"
       x="6.428915"
       y="231.85849" />
    <flowRoot
       xml:space="preserve"
       id="flowRoot924-2"
       style="font-style:normal;font-variant:normal;font-weight:normal;font-stretch:normal;font-size:40px;line-height:1.25;font-family:serif;-inkscape-font-specification:serif;letter-spacing:0px;word-spacing:0px;fill:#ffffff;fill-opacity:1;stroke:#000000;stroke-width:0.9448819;stroke-miterlimit:4;stroke-dasharray:none"
       transform="matrix(0.26458333,0,0,0.26458333,0.53676222,225.60515)"><flowRegion
         id="flowRegion926-7"
         style="font-style:normal;font-variant:normal;font-weight:normal;font-stretch:normal;font-family:serif;-inkscape-font-specification:serif;stroke-width:0.9448819;stroke-miterlimit:4;stroke-dasharray:none;fill:#ffffff;stroke:#000000"><rect
           id="rect928-0"
           width="301.24551"
           height="55.619713"
           x="103.03556"
           y="148.22755"
           style="font-style:normal;font-variant:normal;font-weight:normal;font-stretch:normal;font-family:serif;-inkscape-font-specification:serif;stroke-width:0.9448819;stroke-miterlimit:4;stroke-dasharray:none;fill:#ffffff;stroke:#000000" /></flowRegion><flowPara
         id="flowPara930-9"
         style="font-style:normal;font-variant:normal;font-weight:bold;font-stretch:normal;font-family:serif;-inkscape-font-specification:'serif Bold';stroke:#000000;stroke-opacity:1;stroke-width:0.9448819;stroke-miterlimit:4;stroke-dasharray:none;fill:#ffffff">AQUA VII</flowPara></flowRoot>    <rect
       style="opacity:1;fill:none;fill-opacity:1;fill-rule:evenodd;stroke:#000001;stroke-width:5;stroke-linejoin:miter;stroke-miterlimit:4;stroke-dasharray:none;stroke-dashoffset:0;stroke-opacity:1"
       id="rect882-5-6-9-3-7"
       width="85.26458"
       height="51.26458"
       x="105.31104"
       y="97.061295" />
    <flowRoot
       xml:space="preserve"
       id="flowRoot924-26"
       style="font-style:normal;font-variant:normal;font-weight:normal;font-stretch:normal;font-size:40px;line-height:1.25;font-family:serif;-inkscape-font-specification:serif;letter-spacing:0px;word-spacing:0px;fill:#ffffff;fill-opacity:1;stroke:#000000;stroke-width:0.9448819;stroke-miterlimit:4;stroke-dasharray:none"
       transform="matrix(0.26458333,0,0,0.26458333,107.55268,92.030682)"><flowRegion
         id="flowRegion926-1"
         style="font-style:normal;font-variant:normal;font-weight:normal;font-stretch:normal;font-family:serif;-inkscape-font-specification:serif;stroke-width:0.9448819;stroke-miterlimit:4;stroke-dasharray:none;fill:#ffffff;stroke:#000000"><rect
           id="rect928-8"
           width="225.74921"
           height="47.903622"
           x="103.03556"
           y="148.22755"
           style="font-style:normal;font-variant:normal;font-weight:normal;font-stretch:normal;font-family:serif;-inkscape-font-specification:serif;stroke-width:0.9448819;stroke-miterlimit:4;stroke-dasharray:none;fill:#ffffff;stroke:#000000" /></flowRegion><flowPara
         id="flowPara930-7"
         style="font-style:normal;font-variant:normal;font-weight:bold;font-stretch:normal;font-family:serif;-inkscape-font-specification:'serif Bold';stroke:#000000;stroke-opacity:1;stroke-width:0.9448819;stroke-miterlimit:4;stroke-dasharray:none;fill:#ffffff">AQUA II</flowPara></flowRoot>    <rect
       style="opacity:1;fill:none;fill-opacity:1;fill-rule:evenodd;stroke:#000001;stroke-width:5;stroke-linejoin:miter;stroke-miterlimit:4;stroke-dasharray:none;stroke-dashoffset:0;stroke-opacity:1"
       id="rect882-5-6-9-3"
       width="85.26458"
       height="51.26458"
       x="105.31104"
       y="164.4599" />
    <flowRoot
       xml:space="preserve"
       id="flowRoot924-5-3"
       style="font-style:normal;font-variant:normal;font-weight:normal;font-stretch:normal;font-size:40px;line-height:1.25;font-family:serif;-inkscape-font-specification:serif;letter-spacing:0px;word-spacing:0px;fill:#ffffff;fill-opacity:1;stroke:#000000;stroke-width:0.9448819;stroke-miterlimit:4;stroke-dasharray:none"
       transform="matrix(0.26458333,0,0,0.26458333,108.61721,158.14476)"><flowRegion
         id="flowRegion926-3-7"
         style="font-style:normal;font-variant:normal;font-weight:normal;font-stretch:normal;font-family:serif;-inkscape-font-specification:serif;stroke-width:0.9448819;stroke-miterlimit:4;stroke-dasharray:none;fill:#ffffff;stroke:#000000"><rect
           id="rect928-5-5"
           width="225.74921"
           height="47.903622"
           x="103.03556"
           y="148.22755"
           style="font-style:normal;font-variant:normal;font-weight:normal;font-stretch:normal;font-family:serif;-inkscape-font-specification:serif;stroke-width:0.9448819;stroke-miterlimit:4;stroke-dasharray:none;fill:#ffffff;stroke:#000000" /></flowRegion><flowPara
         id="flowPara930-6-9"
         style="font-style:normal;font-variant:normal;font-weight:bold;font-stretch:normal;font-family:serif;-inkscape-font-specification:'serif Bold';stroke:#000000;stroke-opacity:1;stroke-width:0.9448819;stroke-miterlimit:4;stroke-dasharray:none;fill:#ffffff">AQUA V</flowPara></flowRoot>    <rect
       style="opacity:1;fill:none;fill-opacity:1;fill-rule:evenodd;stroke:#000001;stroke-width:5;stroke-linejoin:miter;stroke-miterlimit:4;stroke-dasharray:none;stroke-dashoffset:0;stroke-opacity:1"
       id="rect882-5-6-9"
       width="85.26458"
       height="51.26458"
       x="105.31104"
       y="231.85849" />
    <flowRoot
       xml:space="preserve"
       id="flowRoot924-2-7"
       style="font-style:normal;font-variant:normal;font-weight:normal;font-stretch:normal;font-size:40px;line-height:1.25;font-family:serif;-inkscape-font-specification:serif;letter-spacing:0px;word-spacing:0px;fill:#ffffff;fill-opacity:1;stroke:#000000;stroke-width:0.9448819;stroke-miterlimit:4;stroke-dasharray:none"
       transform="matrix(0.26458333,0,0,0.26458333,94.385525,225.60515)"><flowRegion
         id="flowRegion926-7-3"
         style="font-style:normal;font-variant:normal;font-weight:normal;font-stretch:normal;font-family:serif;-inkscape-font-specification:serif;stroke-width:0.9448819;stroke-miterlimit:4;stroke-dasharray:none;fill:#ffffff;stroke:#000000"><rect
           id="rect928-0-6"
           width="330.80505"
           height="45.88332"
           x="103.03556"
           y="148.22755"
           style="font-style:normal;font-variant:normal;font-weight:normal;font-stretch:normal;font-family:serif;-inkscape-font-specification:serif;stroke-width:0.9448819;stroke-miterlimit:4;stroke-dasharray:none;fill:#ffffff;stroke:#000000" /></flowRegion><flowPara
         id="flowPara930-9-1"
         style="font-style:normal;font-variant:normal;font-weight:bold;font-stretch:normal;font-family:serif;-inkscape-font-specification:'serif Bold';stroke:#000000;stroke-opacity:1;stroke-width:0.9448819;stroke-miterlimit:4;stroke-dasharray:none;fill:#ffffff">AQUA VIII</flowPara></flowRoot>    <rect
       style="opacity:1;fill:none;fill-opacity:1;fill-rule:evenodd;stroke:#000001;stroke-width:5;stroke-linejoin:miter;stroke-miterlimit:4;stroke-dasharray:none;stroke-dashoffset:0;stroke-opacity:1"
       id="rect882-5-6-9-3-7-4"
       width="85.26458"
       height="51.26458"
       x="202.47316"
       y="97.061295" />
    <flowRoot
       xml:space="preserve"
       id="flowRoot924-4"
       style="font-style:normal;font-variant:normal;font-weight:normal;font-stretch:normal;font-size:40px;line-height:1.25;font-family:serif;-inkscape-font-specification:serif;letter-spacing:0px;word-spacing:0px;fill:#ffffff;fill-opacity:1;stroke:#000000;stroke-width:0.9448819;stroke-miterlimit:4;stroke-dasharray:none"
       transform="matrix(0.26458333,0,0,0.26458333,199.32749,92.030195)"><flowRegion
         id="flowRegion926-78"
         style="font-style:normal;font-variant:normal;font-weight:normal;font-stretch:normal;font-family:serif;-inkscape-font-specification:serif;stroke-width:0.9448819;stroke-miterlimit:4;stroke-dasharray:none;fill:#ffffff;stroke:#000000"><rect
           id="rect928-4"
           width="272.21622"
           height="47.903625"
           x="103.03556"
           y="148.22755"
           style="font-style:normal;font-variant:normal;font-weight:normal;font-stretch:normal;font-family:serif;-inkscape-font-specification:serif;stroke-width:0.9448819;stroke-miterlimit:4;stroke-dasharray:none;fill:#ffffff;stroke:#000000" /></flowRegion><flowPara
         id="flowPara930-5"
         style="font-style:normal;font-variant:normal;font-weight:bold;font-stretch:normal;font-family:serif;-inkscape-font-specification:'serif Bold';stroke:#000000;stroke-opacity:1;stroke-width:0.9448819;stroke-miterlimit:4;stroke-dasharray:none;fill:#ffffff">AQUA III</flowPara></flowRoot>    <rect
       style="opacity:1;fill:none;fill-opacity:1;fill-rule:evenodd;stroke:#000001;stroke-width:5;stroke-linejoin:miter;stroke-miterlimit:4;stroke-dasharray:none;stroke-dashoffset:0;stroke-opacity:1"
       id="rect882-5-6-9-3-7-5"
       width="85.26458"
       height="51.26458"
       x="202.47316"
       y="164.4599" />
    <flowRoot
       xml:space="preserve"
       id="flowRoot924-5-0"
       style="font-style:normal;font-variant:normal;font-weight:normal;font-stretch:normal;font-size:40px;line-height:1.25;font-family:serif;-inkscape-font-specification:serif;letter-spacing:0px;word-spacing:0px;fill:#ffffff;fill-opacity:1;stroke:#000000;stroke-width:0.9448819;stroke-miterlimit:4;stroke-dasharray:none"
       transform="matrix(0.26458333,0,0,0.26458333,201.04315,158.14476)"><flowRegion
         id="flowRegion926-3-6"
         style="font-style:normal;font-variant:normal;font-weight:normal;font-stretch:normal;font-family:serif;-inkscape-font-specification:serif;stroke-width:0.9448819;stroke-miterlimit:4;stroke-dasharray:none;fill:#ffffff;stroke:#000000"><rect
           id="rect928-5-3"
           width="282.31775"
           height="53.964542"
           x="103.03556"
           y="148.22755"
           style="font-style:normal;font-variant:normal;font-weight:normal;font-stretch:normal;font-family:serif;-inkscape-font-specification:serif;stroke-width:0.9448819;stroke-miterlimit:4;stroke-dasharray:none;fill:#ffffff;stroke:#000000" /></flowRegion><flowPara
         id="flowPara930-6-2"
         style="font-style:normal;font-variant:normal;font-weight:bold;font-stretch:normal;font-family:serif;-inkscape-font-specification:'serif Bold';stroke:#000000;stroke-opacity:1;stroke-width:0.9448819;stroke-miterlimit:4;stroke-dasharray:none;fill:#ffffff">AQUA VI</flowPara></flowRoot>    <rect
       style="opacity:1;fill:none;fill-opacity:1;fill-rule:evenodd;stroke:#000001;stroke-width:5;stroke-linejoin:miter;stroke-miterlimit:4;stroke-dasharray:none;stroke-dashoffset:0;stroke-opacity:1"
       id="rect882-5-6-9-3-7-2"
       width="85.26458"
       height="51.26458"
       x="202.47316"
       y="231.85849" />
    <flowRoot
       xml:space="preserve"
       id="flowRoot924-2-5"
       style="font-style:normal;font-variant:normal;font-weight:normal;font-stretch:normal;font-size:40px;line-height:1.25;font-family:serif;-inkscape-font-specification:serif;letter-spacing:0px;word-spacing:0px;fill:#ffffff;fill-opacity:1;stroke:#000000;stroke-width:0.9448819;stroke-miterlimit:4;stroke-dasharray:none"
       transform="matrix(0.26458333,0,0,0.26458333,200.55222,225.60515)"><flowRegion
         id="flowRegion926-7-4"
         style="font-style:normal;font-variant:normal;font-weight:normal;font-stretch:normal;font-family:serif;-inkscape-font-specification:serif;stroke-width:0.9448819;stroke-miterlimit:4;stroke-dasharray:none;fill:#ffffff;stroke:#000000"><rect
           id="rect928-0-7"
           width="256.05377"
           height="47.903625"
           x="103.03556"
           y="148.22755"
           style="font-style:normal;font-variant:normal;font-weight:normal;font-stretch:normal;font-family:serif;-inkscape-font-specification:serif;stroke-width:0.9448819;stroke-miterlimit:4;stroke-dasharray:none;fill:#ffffff;stroke:#000000" /></flowRegion><flowPara
         id="flowPara930-9-6"
         style="font-style:normal;font-variant:normal;font-weight:bold;font-stretch:normal;font-family:serif;-inkscape-font-specification:'serif Bold';stroke:#000000;stroke-opacity:1;stroke-width:0.9448819;stroke-miterlimit:4;stroke-dasharray:none;fill:#ffffff">AQUA IX</flowPara></flowRoot>    <flowRoot
       xml:space="preserve"
       id="flowRoot2624"
       style="font-style:normal;font-weight:normal;font-size:16px;line-height:1.25;font-family:sans-serif;letter-spacing:0px;word-spacing:0px;fill:#000000;fill-opacity:1;stroke:none"
       transform="matrix(0.26458333,0,0,0.26458333,0.37417736,92.986837)"><flowRegion
         id="flowRegion2626"><rect
           id="rect2628"
           width="991.10706"
           height="62.347706"
           x="24.298262"
           y="741.25256" /></flowRegion><flowPara
         id="flowPara2630">Picture by Ady Arif Fauzan via Pixabay: https://pixabay.com/de/users/Ady_Fauzan-6127768/</flowPara></flowRoot>  </g>
</svg>
